-------------------------------------------------------------------------------
Test set: com.eddie.replication.server.ticketApi.apiTest
-------------------------------------------------------------------------------
Tests run: 3, Failures: 0, Errors: 0, Skipped: 0, Time elapsed: 0.327 s -- in com.eddie.replication.server.ticketApi.apiTest
